…
::: notes
Data often does not come in this format but is rather messy! That's why we wrangle.

Tidy data is in between wide and long (you can always go longer! :D)
:::

## Tidy Data 2

What do you think, which of the following data sets is tidy?

:::columns
::: {.column width="40%"}
```{r}
table2
#> # A tibble: 12 x 4
#>   country      year type           count
#>   <chr>       <int> <chr>          <int>
#> 1 Afghanistan  1999 cases            745
#> 2 Afghanistan  1999 population  19987071
#> 3 Afghanistan  2000 cases           2666
#> 4 Afghanistan  2000 population  20595360
#> 5 Brazil       1999 cases          37737
#> 6 Brazil       1999 population 172006362
#> # … with 6 more rows
```
…
