03 Data Wrangling
…
Change the order of the data (oberservations/rows)!

Using arrange(), try sorting the data according to the names column. What happens?

How can you sort a column in a descending fashion? Check out the help file (?arrange).

Let’s sort by year descendingly and within each year, sort names alphabetically.

sort_asc <- babynames %>% arrange(name)

sort_desc <- babynames %>% arrange(desc(year)) 

babynames %>% arrange(desc(year), name) 

# A tibble: 1,924,665 × 5
    year sex   name          n       prop
   <dbl> <chr> <chr>     <int>      <dbl>
 1  2017 M     Aaban        11 0.0000056 
 2  2017 F     Aabriella     6 0.0000032 
 3  2017 M     Aadam        18 0.00000917
 4  2017 M     Aadan         8 0.00000407
 5  2017 M     Aadarsh      15 0.00000764
 6  2017 M     Aaden       240 0.000122  
 7  2017 M     Aadesh        7 0.00000357
 8  2017 M     Aadhav       31 0.0000158 
 9  2017 M     Aadhavan      6 0.00000306
10  2017 M     Aadhi        10 0.00000509
# ℹ 1,924,655 more rows

remember to save data in new tibble/data frame!

Filter Observations

We have already used select() to keep only certain variables (columns), but often we also want to keep only certain observations (rows), e.g. babies born in the year 2000 and later.

We use the function filter() for this.

Look at the following code and think about what it might do.

babynames %>% filter(year > 2000)

# A tibble: 562,156 × 5
    year sex   name          n    prop
   <dbl> <chr> <chr>     <int>   <dbl>
 1  2001 F     Emily     25055 0.0127 
 2  2001 F     Madison   22164 0.0112 
 3  2001 F     Hannah    20712 0.0105 
 4  2001 F     Ashley    16526 0.00835
 5  2001 F     Alexis    16401 0.00828
 6  2001 F     Sarah     15896 0.00803
 7  2001 F     Samantha  15862 0.00801
 8  2001 F     Abigail   14807 0.00748
 9  2001 F     Elizabeth 14784 0.00747
10  2001 F     Olivia    13978 0.00706
# ℹ 562,146 more rows
…
It is just part of this class because you will likely encounter it in somebody else’s (old) code.

If you do have to use it, make sure to ungroup() after summarise() (or mutate()) to avoid unintended effects:

group_sum <- dat %>% group_by(name) %>% summarise(total = sum(n)) %>% ungroup()

Grouping and Summarizing 3

Use the baby_decades data frame to calculate the mean and median number of observations, grouped by sex & decade.

baby_decades %>% summarise(mean_year = mean(n),
                           median_year = median(n),
                           .by=c(sex, decade))

# A tibble: 28 × 4
   sex   decade mean_year median_year
   <chr>  <dbl>     <dbl>       <dbl>
 1 F       1880     111.           13
 2 M       1880     101.           12
 3 F       1890     128.           13
 4 M       1890      93.6          12
 5 F       1900     131.           12
 6 M       1900      94.4          12
 7 F       1910     187.           12
 8 M       1910     181.           12
 9 F       1920     211.           12
10 M       1920     227.           13
# ℹ 18 more rows
…
